<?xml version="1.0" encoding="UTF-8" standalone="no"?>
<!-- Generator: Adobe Illustrator 17.0.0, SVG Export Plug-In . SVG Version: 6.00 Build 0)  -->

<svg
   xmlns:dc="http://purl.org/dc/elements/1.1/"
   xmlns:cc="http://creativecommons.org/ns#"
   xmlns:rdf="http://www.w3.org/1999/02/22-rdf-syntax-ns#"
   xmlns:svg="http://www.w3.org/2000/svg"
   xmlns="http://www.w3.org/2000/svg"
   xmlns:sodipodi="http://sodipodi.sourceforge.net/DTD/sodipodi-0.dtd"
   xmlns:inkscape="http://www.inkscape.org/namespaces/inkscape"
   version="1.1"
   id="Слой_1"
   x="0px"
   y="0px"
   width="94.399px"
   height="97.512px"
   viewBox="0 0 94.399 97.512"
   enable-background="new 0 0 94.399 97.512"
   xml:space="preserve"
   inkscape:version="0.91 r13725"
   sodipodi:docname="mobile.svg"><metadata
     id="metadata59"><rdf:RDF><cc:Work
         rdf:about=""><dc:format>image/svg+xml</dc:format><dc:type
           rdf:resource="http://purl.org/dc/dcmitype/StillImage" /></cc:Work></rdf:RDF></metadata><defs
     id="defs57" /><sodipodi:namedview
     pagecolor="#ffffff"
     bordercolor="#666666"
     borderopacity="1"
     objecttolerance="10"
     gridtolerance="10"
     guidetolerance="10"
     inkscape:pageopacity="0"
     inkscape:pageshadow="2"
     inkscape:window-width="1536"
     inkscape:window-height="801"
     id="namedview55"
     showgrid="false"
     inkscape:zoom="2.4202149"
     inkscape:cx="47.199501"
     inkscape:cy="48.756001"
     inkscape:window-x="-8"
     inkscape:window-y="-8"
     inkscape:window-maximized="1"
     inkscape:current-layer="Слой_1" /><g
     id="g3"><path
       fill="none"
       stroke="#1D1D1B"
       stroke-width="4"
       stroke-linejoin="round"
       stroke-miterlimit="10"
       d="M0,27.851"
       id="path5" /><path
       fill="none"
       stroke="#1D1D1B"
       stroke-width="4"
       stroke-linejoin="round"
       stroke-miterlimit="10"
       d="M0,16.941"
       id="path7" /><g
       id="g9"><circle
         cx="21.588"
         cy="11.351"
         r="2.098"
         id="circle11"
         style="fill:#f5a623;fill-opacity:1" /><line
         fill="none"
         stroke="#1D1D1B"
         stroke-width="4"
         stroke-linecap="round"
         stroke-miterlimit="10"
         x1="40.671"
         y1="11.351"
         x2="29.22"
         y2="11.351"
         id="line13"
         style="stroke:#f5a623;stroke-opacity:1" /></g><path
       fill="#1D1D1B"
       d="M58.342,18.135c-18.661,0-33.842,10.01-33.842,22.314c0,8.284,7.839,15.516,18.081,19.365   c-0.416,2.14-1.515,6.416-4.005,8.981c-0.44,0.336-0.751,0.835-0.805,1.392c-0.087,0.911,0.459,1.77,1.32,2.079   c0.138,0.049,0.412,0.079,0.8,0.079c2.92,0,12.252-1.721,17.964-9.589c0.162,0.004,0.323,0.008,0.486,0.008   c18.66,0,33.841-10.01,33.841-22.314S77.002,18.135,58.342,18.135z M58.342,58.764l-1.277,0.068   c-0.195-0.025-0.392-0.012-0.587,0.031l-0.026,0.001c0.002,0.001,0.004,0.003,0.005,0.004c-0.576,0.135-1.126,0.534-1.481,1.059   c-3.032,4.492-7.472,6.613-10.75,7.606c2.009-4.04,2.519-8.327,2.547-8.573c0.124-1.097-0.663-2.086-1.76-2.211   c-0.083-0.009-0.163-0.004-0.245-0.003C35.122,53.709,28.5,47.548,28.5,40.449c0-10.099,13.387-18.314,29.842-18.314   s29.841,8.216,29.841,18.314S74.796,58.764,58.342,58.764z"
       id="path15"
       style="fill:#f5a623;fill-opacity:1" /><g
       id="g17"><g
         id="g19"><path
           fill="none"
           stroke="#1D1D1B"
           stroke-width="4"
           stroke-linecap="round"
           stroke-miterlimit="10"
           d="M56.438,62.476v19.75     c0,6.627-3.605,12-9.286,12H14.723"
           id="path21"
           style="stroke:#f5a623;stroke-opacity:1" /><path
           fill="none"
           stroke="#1D1D1B"
           stroke-width="4"
           stroke-linecap="round"
           stroke-miterlimit="10"
           d="M20.723,3.476h25.429     c5.681,0,10.286,5.373,10.286,12v4.75"
           id="path23"
           style="stroke:#f5a623;stroke-opacity:1" /><path
           fill="none"
           stroke="#1D1D1B"
           stroke-width="4"
           stroke-linecap="round"
           stroke-miterlimit="10"
           d="M3.723,65.476v16.75     c0,6.627,3.605,12,9.286,12h32.429"
           id="path25"
           style="stroke:#f5a623;stroke-opacity:1" /><path
           fill="none"
           stroke="#1D1D1B"
           stroke-width="4"
           stroke-linecap="round"
           stroke-miterlimit="10"
           d="M45.438,3.476H14.009     c-5.681,0-10.286,5.373-10.286,12v33.75"
           id="path27"
           style="stroke:#f5a623;stroke-opacity:1" /><line
           fill="none"
           stroke="#1D1D1B"
           stroke-width="4"
           stroke-linecap="round"
           stroke-miterlimit="10"
           x1="3.937"
           y1="59.264"
           x2="3.937"
           y2="56.482"
           id="line29"
           style="stroke:#f5a623;stroke-opacity:1" /></g><g
         id="g31"><circle
           cx="30.08"
           cy="86.852"
           r="3.036"
           id="circle33"
           style="fill:#f5a623;fill-opacity:1" /><g
           id="g35"><polyline
             fill="none"
             stroke="#1D1D1B"
             stroke-width="4"
             stroke-linejoin="round"
             stroke-miterlimit="10"
             points="      49.247,67.941 49.247,79.851 10.914,79.851 10.914,18.941 49.247,18.941     "
             id="polyline37"
             style="stroke:#f5a623;stroke-opacity:1" /><polyline
             fill="none"
             stroke="#1D1D1B"
             stroke-width="4"
             stroke-linejoin="round"
             stroke-miterlimit="10"
             points="      49.247,21.851 49.247,18.941 10.914,18.941 10.914,79.851 49.247,79.851     "
             id="polyline39"
             style="stroke:#f5a623;stroke-opacity:1" /></g></g></g><g
       id="g41"><line
         fill="none"
         stroke="#1D1D1B"
         stroke-width="4"
         stroke-linecap="round"
         stroke-miterlimit="10"
         x1="76.693"
         y1="35.351"
         x2="73.009"
         y2="35.351"
         id="line43"
         style="stroke:#f5a623;stroke-opacity:1" /><line
         fill="none"
         stroke="#1D1D1B"
         stroke-width="4"
         stroke-linecap="round"
         stroke-miterlimit="10"
         x1="66.159"
         y1="35.35"
         x2="39.989"
         y2="35.35"
         id="line45"
         style="stroke:#f5a623;stroke-opacity:1" /><line
         fill="none"
         stroke="#1D1D1B"
         stroke-width="4"
         stroke-linecap="round"
         stroke-miterlimit="10"
         x1="39.989"
         y1="42.349"
         x2="59.825"
         y2="42.349"
         id="line47"
         style="stroke:#f5a623;stroke-opacity:1" /><line
         fill="none"
         stroke="#1D1D1B"
         stroke-width="4"
         stroke-linecap="round"
         stroke-miterlimit="10"
         x1="66.659"
         y1="42.351"
         x2="76.694"
         y2="42.351"
         id="line49"
         style="stroke:#f5a623;stroke-opacity:1" /><line
         fill="none"
         stroke="#1D1D1B"
         stroke-width="4"
         stroke-linecap="round"
         stroke-miterlimit="10"
         x1="39.989"
         y1="49.35"
         x2="54.992"
         y2="49.35"
         id="line51"
         style="stroke:#f5a623;stroke-opacity:1" /><line
         fill="none"
         stroke="#1D1D1B"
         stroke-width="4"
         stroke-linecap="round"
         stroke-miterlimit="10"
         x1="62.659"
         y1="49.351"
         x2="68.992"
         y2="49.351"
         id="line53"
         style="stroke:#f5a623;stroke-opacity:1" /></g></g></svg>