<?xml version="1.0" encoding="UTF-8"?>
<svg width="20px" height="21px" viewBox="0 0 20 21" version="1.1" xmlns="http://www.w3.org/2000/svg" xmlns:xlink="http://www.w3.org/1999/xlink">
    <!-- Generator: Sketch 43.1 (39012) - http://www.bohemiancoding.com/sketch -->
    <title></title>
    <desc>Created with Sketch.</desc>
    <defs></defs>
    <g id="Page-1" stroke="none" stroke-width="1" fill="none" fill-rule="evenodd">
        <g id="New-Account-1" transform="translate(-445.000000, -281.000000)" fill="#E07941">
            <g id="Login-Input" transform="translate(441.000000, 281.000000)">
                <path d="M14,1.5 C13.4661432,1.5 12.9388047,1.60091045 12.4179688,1.80273438 C11.8971328,2.0045583 11.4283875,2.26171719 11.0117188,2.57421875 C10.59505,2.88672031 10.2597669,3.22525859 10.0058594,3.58984375 C9.75195186,3.95442891 9.625,4.29947754 9.625,4.625 L9.625,7.75 C9.625,8.36198223 9.77799326,9.14322441 10.0839844,10.09375 C10.3899755,11.0442756 10.8684863,11.7799453 11.5195312,12.3007812 C11.6888029,12.4309902 11.8157548,12.5970042 11.9003906,12.7988281 C11.9850265,13.0006521 12.014323,13.2122385 11.9882812,13.4335938 C11.9492186,13.6419281 11.8678392,13.8339835 11.7441406,14.0097656 C11.6204421,14.1855478 11.4609385,14.31901 11.265625,14.4101562 L5.77734375,17.0078125 C5.69921836,17.0338543 5.59179756,17.0957026 5.45507812,17.1933594 C5.31835869,17.2910161 5.25,17.4700508 5.25,17.7304688 L5.25,19 L22.7304688,18.9804688 L22.7304688,17.7695312 C22.7304688,17.4309879 22.6490894,17.2194015 22.4863281,17.1347656 C22.3235669,17.0501298 22.2356771,17.0078125 22.2226562,17.0078125 L16.7734375,14.4296875 C16.578124,14.3385412 16.4153652,14.205079 16.2851562,14.0292969 C16.1549473,13.8535147 16.076823,13.654949 16.0507812,13.4335938 C16.0247395,13.2122385 16.054036,13.0006521 16.1386719,12.7988281 C16.2233077,12.5970042 16.3502596,12.4309902 16.5195312,12.3007812 C17.196618,11.7799453 17.6751288,11.0410204 17.9550781,10.0839844 C18.2350274,9.12694834 18.375,8.34896133 18.375,7.75 L18.375,4.625 C18.375,4.28645664 18.244793,3.93489766 17.984375,3.5703125 C17.723957,3.20572734 17.3886739,2.87044424 16.9785156,2.56445312 C16.5683573,2.25846201 16.099612,2.0045583 15.5722656,1.80273438 C15.0449192,1.60091045 14.5208359,1.5 14,1.5 Z M14,0.25 C14.6901076,0.25 15.3704394,0.380207031 16.0410156,0.640625 C16.7115919,0.901042969 17.3105442,1.23958125 17.8378906,1.65625 C18.365237,2.07291875 18.7949202,2.54166406 19.1269531,3.0625 C19.458986,3.58333594 19.625,4.10416406 19.625,4.625 L19.625,7.75 C19.625,8.12760605 19.5859379,8.56379961 19.5078125,9.05859375 C19.4296871,9.55338789 19.2994801,10.0579401 19.1171875,10.5722656 C18.9348949,11.0865911 18.6940119,11.5813778 18.3945312,12.0566406 C18.0950506,12.5319034 17.7304709,12.9388004 17.3007812,13.2773438 L22.75,15.875 L23.3652344,16.2167969 C23.7753927,16.4446626 23.9804688,16.7408836 23.9804688,17.1054688 L23.9804688,19 C23.9804688,19.3385434 23.8600272,19.628254 23.6191406,19.8691406 C23.378254,20.1100272 23.0885434,20.2304688 22.75,20.2304688 L5.25,20.2304688 C4.89843574,20.2304688 4.60221475,20.1100272 4.36132812,19.8691406 C4.1204415,19.628254 4,19.3385434 4,19 L4,17.1054688 C4,16.7669254 4.20833125,16.4772147 4.625,16.2363281 L5.25,15.875 L10.7382812,13.2773438 C10.2955707,12.9257795 9.92448066,12.5026066 9.625,12.0078125 C9.32551934,11.5130184 9.08138115,11.0084661 8.89257812,10.4941406 C8.7037751,9.97981514 8.57031289,9.47851807 8.4921875,8.99023438 C8.41406211,8.50195068 8.375,8.08854336 8.375,7.75 L8.375,4.625 C8.375,4.10416406 8.53775879,3.58333594 8.86328125,3.0625 C9.18880371,2.54166406 9.61523174,2.07291875 10.1425781,1.65625 C10.6699245,1.23958125 11.272132,0.901042969 11.9492188,0.640625 C12.6263055,0.380207031 13.3098924,0.25 14,0.25 Z" id=""></path>
            </g>
        </g>
    </g>
</svg>