<?xml version="1.0" encoding="UTF-8"?>
<svg width="14px" height="16px" viewBox="0 0 14 16" version="1.1" xmlns="http://www.w3.org/2000/svg" xmlns:xlink="http://www.w3.org/1999/xlink">
    <!-- Generator: Sketch 42 (36781) - http://www.bohemiancoding.com/sketch -->
    <title>garbage</title>
    <desc>Created with Sketch.</desc>
    <defs></defs>
    <g id="Page-1" stroke="none" stroke-width="1" fill="none" fill-rule="evenodd">
        <g id="Estrategies" transform="translate(-280.000000, -524.000000)" fill="#FFFFFF">
            <g id="Graphic" transform="translate(250.000000, 359.000000)">
                <g id="Menu" transform="translate(30.000000, 34.000000)">
                    <g id="garbage" transform="translate(0.000000, 131.000000)">
                        <path d="M13.5271873,2.33129683 L10.2607493,2.33129683 L10.2607493,1.79031956 C10.2607493,0.822962536 9.48614986,0.0360678834 8.53394813,0.0360678834 L5.42889337,0.0360678834 C4.47681268,0.0360678834 3.70221326,0.822962536 3.70221326,1.79031956 L3.70221326,2.33129683 L0.435775216,2.33129683 C0.193700288,2.33129683 0,2.52807173 0,2.77398911 C0,3.0199065 0.193700288,3.2166814 0.435775216,3.2166814 L1.2232853,3.2166814 L1.2232853,13.6172245 C1.2232853,14.9222261 2.2689683,15.9846711 3.55357925,15.9846711 L10.4092219,15.9846711 C11.6938329,15.9846711 12.7396772,14.9222261 12.7396772,13.6172245 L12.7396772,3.2166814 L13.5271873,3.2166814 C13.7692622,3.2166814 13.9628012,3.0199065 13.9628012,2.77398911 C13.9628012,2.52807173 13.7692622,2.33129683 13.5271873,2.33129683 Z M4.57356196,1.79031956 C4.57356196,1.31160038 4.95765418,0.92145245 5.42889337,0.92145245 L8.53394813,0.92145245 C9.00514697,0.92145245 9.38923919,1.31160038 9.38923919,1.79031956 L9.38923919,2.33129683 L4.57356196,2.33129683 L4.57356196,1.79031956 Z M11.8681268,13.6172245 C11.8681268,14.4337522 11.2129914,15.0993276 10.4092219,15.0993276 L3.55357925,15.0993276 C2.74997118,15.0993276 2.09483573,14.4337522 2.09483573,13.6172245 L2.09483573,3.2166814 L11.8712738,3.2166814 L11.8712738,13.6172245 L11.8681268,13.6172245 Z" id="Fill-1"></path>
                        <path d="M6.98140058,13.5123817 C7.2234755,13.5123817 7.41717579,13.3156068 7.41717579,13.0696894 L7.41717579,5.24627858 C7.41717579,5.00036119 7.2234755,4.8035863 6.98140058,4.8035863 C6.73932565,4.8035863 6.54562536,5.00036119 6.54562536,5.24627858 L6.54562536,13.0664925 C6.54562536,13.3124099 6.73932565,13.5123817 6.98140058,13.5123817 Z" id="Fill-2"></path>
                        <path d="M4.13782709,13.0237438 C4.37990202,13.0237438 4.57356196,12.8269689 4.57356196,12.5810516 L4.57356196,5.73155556 C4.57356196,5.48563817 4.37990202,5.28886327 4.13782709,5.28886327 C3.89575216,5.28886327 3.70221326,5.48563817 3.70221326,5.73155556 L3.70221326,12.5810516 C3.70221326,12.8269689 3.89906052,13.0237438 4.13782709,13.0237438 Z" id="Fill-3"></path>
                        <path d="M9.82501441,13.0237438 C10.0670893,13.0237438 10.2607493,12.8269689 10.2607493,12.5810516 L10.2607493,5.73155556 C10.2607493,5.48563817 10.0670893,5.28886327 9.82501441,5.28886327 C9.58293948,5.28886327 9.38923919,5.48563817 9.38923919,5.73155556 L9.38923919,12.5810516 C9.38923919,12.8269689 9.58293948,13.0237438 9.82501441,13.0237438 Z" id="Fill-4"></path>
                    </g>
                </g>
            </g>
        </g>
    </g>
</svg>