<?xml version="1.0" encoding="UTF-8"?>
<svg width="20px" height="21px" viewBox="0 0 20 21" version="1.1" xmlns="http://www.w3.org/2000/svg" xmlns:xlink="http://www.w3.org/1999/xlink">
    <!-- Generator: Sketch 44 (41411) - http://www.bohemiancoding.com/sketch -->
    <title>Grid - simple-line-icons</title>
    <desc>Created with Sketch.</desc>
    <defs></defs>
    <g id="Page-1" stroke="none" stroke-width="1" fill="none" fill-rule="evenodd">
        <g id="Artboard" transform="translate(-155.000000, -172.000000)" fill="#FFFFFF">
            <path d="M173.75,192.25 L167.5,192.25 C167.148436,192.25 166.852215,192.129558 166.611328,191.888672 C166.370442,191.647785 166.25,191.351564 166.25,191 L166.25,184.75 C166.25,184.398436 166.370442,184.102215 166.611328,183.861328 C166.852215,183.620442 167.148436,183.5 167.5,183.5 L173.75,183.5 C174.101564,183.5 174.397785,183.620442 174.638672,183.861328 C174.879558,184.102215 175,184.398436 175,184.75 L175,191 C175,191.351564 174.879558,191.647785 174.638672,191.888672 C174.397785,192.129558 174.101564,192.25 173.75,192.25 Z M173.75,184.75 L167.5,184.75 L167.5,191 L173.75,191 L173.75,184.75 Z M173.75,181 L167.5,181 C167.148436,181 166.852215,180.879558 166.611328,180.638672 C166.370442,180.397785 166.25,180.101564 166.25,179.75 L166.25,173.5 C166.25,173.148436 166.370442,172.852215 166.611328,172.611328 C166.852215,172.370442 167.148436,172.25 167.5,172.25 L173.75,172.25 C174.101564,172.25 174.397785,172.370442 174.638672,172.611328 C174.879558,172.852215 175,173.148436 175,173.5 L175,179.75 C175,180.101564 174.879558,180.397785 174.638672,180.638672 C174.397785,180.879558 174.101564,181 173.75,181 Z M173.75,173.5 L167.5,173.5 L167.5,179.75 L173.75,179.75 L173.75,173.5 Z M162.5,192.25 L156.25,192.25 C155.898436,192.25 155.602215,192.129558 155.361328,191.888672 C155.120442,191.647785 155,191.351564 155,191 L155,184.75 C155,184.398436 155.120442,184.102215 155.361328,183.861328 C155.602215,183.620442 155.898436,183.5 156.25,183.5 L162.5,183.5 C162.851564,183.5 163.147785,183.620442 163.388672,183.861328 C163.629558,184.102215 163.75,184.398436 163.75,184.75 L163.75,191 C163.75,191.351564 163.629558,191.647785 163.388672,191.888672 C163.147785,192.129558 162.851564,192.25 162.5,192.25 Z M162.5,184.75 L156.25,184.75 L156.25,191 L162.5,191 L162.5,184.75 Z M162.5,181 L156.25,181 C155.898436,181 155.602215,180.879558 155.361328,180.638672 C155.120442,180.397785 155,180.101564 155,179.75 L155,173.5 C155,173.148436 155.120442,172.852215 155.361328,172.611328 C155.602215,172.370442 155.898436,172.25 156.25,172.25 L162.5,172.25 C162.851564,172.25 163.147785,172.370442 163.388672,172.611328 C163.629558,172.852215 163.75,173.148436 163.75,173.5 L163.75,179.75 C163.75,180.101564 163.629558,180.397785 163.388672,180.638672 C163.147785,180.879558 162.851564,181 162.5,181 Z M162.5,173.5 L156.25,173.5 L156.25,179.75 L162.5,179.75 L162.5,173.5 Z" id="Grid---simple-line-icons"></path>
        </g>
    </g>
</svg>