<?xml version="1.0" encoding="UTF-8"?>
<svg width="18px" height="21px" viewBox="0 0 18 21" version="1.1" xmlns="http://www.w3.org/2000/svg" xmlns:xlink="http://www.w3.org/1999/xlink">
    <!-- Generator: Sketch 42 (36781) - http://www.bohemiancoding.com/sketch -->
    <title>lock - simple-line-icons</title>
    <desc>Created with Sketch.</desc>
    <defs></defs>
    <g id="Page-1" stroke="none" stroke-width="1" fill="none" fill-rule="evenodd" font-size="20" font-family="simple-line-icons" font-weight="normal">
        <g id="Login-Form" transform="translate(-554.000000, -337.000000)" fill="#E07941">
            <g id="Form" transform="translate(499.000000, 111.000000)">
                <g id="Password-Input" transform="translate(50.000000, 226.000000)">
                    <text id="lock---simple-line-icons">
                        <tspan x="4" y="19"></tspan>
                    </text>
                </g>
            </g>
        </g>
    </g>
</svg>