<?xml version="1.0" encoding="UTF-8"?>
<svg width="105px" height="35px" viewBox="0 0 105 35" version="1.1" xmlns="http://www.w3.org/2000/svg" xmlns:xlink="http://www.w3.org/1999/xlink">
    <!-- Generator: Sketch 42 (36781) - http://www.bohemiancoding.com/sketch -->
    <title>Logo</title>
    <desc>Created with Sketch.</desc>
    <defs>
        <polygon id="path-1" points="0 11.9498857 0 23.7927516 10.4214047 23.7927516 10.4214047 0.107019772 0 0.107019772 0 11.9498857"></polygon>
    </defs>
    <g id="Symbols" stroke="none" stroke-width="1" fill="none" fill-rule="evenodd">
        <g id="Menu-Bar" transform="translate(-240.000000, -13.000000)">
            <g id="Logo" transform="translate(240.000000, 13.000000)">
                <path d="M22.0023477,31.1837399 L22.0023477,31.1837399 C20.9412083,31.1837399 20.0809921,30.3207507 20.0809921,29.255935 L20.0809921,9.41359989 C20.0809921,8.34878421 20.9412083,7.48579498 22.0023477,7.48579498 C23.0632809,7.48579498 23.9234971,8.34878421 23.9234971,9.41359989 L23.9234971,29.255935 C23.9234971,30.3207507 23.0632809,31.1837399 22.0023477,31.1837399" id="Fill-1" fill="#FFFFFF"></path>
                <g id="Group-5" transform="translate(0.000000, 10.764078)">
                    <mask id="mask-2" fill="white">
                        <use xlink:href="#path-1"></use>
                    </mask>
                    <g id="Clip-3"></g>
                    <path d="M1.92114931,16.5640525 L1.92114931,16.5640525 C0.86021611,16.5640525 0,15.7010632 0,14.6362475 L0,6.36074187 C0,5.29613319 0.86021611,4.43293697 1.92114931,4.43293697 C2.98208251,4.43293697 3.84229862,5.29613319 3.84229862,6.36074187 L3.84229862,14.6362475 C3.84229862,15.7010632 2.98208251,16.5640525 1.92114931,16.5640525" id="Fill-2" fill="#FFFFFF" mask="url(#mask-2)"></path>
                    <path d="M8.5002554,23.8051717 L8.5002554,23.8051717 C7.4393222,23.8051717 6.57910609,22.9419754 6.57910609,21.8773668 L6.57910609,2.03482467 C6.57910609,0.970215997 7.4393222,0.107019772 8.5002554,0.107019772 C9.56139489,0.107019772 10.4214047,0.970215997 10.4214047,2.03482467 L10.4214047,21.8773668 C10.4214047,22.9419754 9.56139489,23.8051717 8.5002554,23.8051717" id="Fill-4" fill="#FFFFFF" mask="url(#mask-2)"></path>
                </g>
                <path d="M14.9857073,26.481701 L14.9857073,26.481701 C13.9247741,26.481701 13.064558,25.6187118 13.064558,24.5538961 L13.064558,7.75220591 C13.064558,6.68739023 13.9247741,5.824401 14.9857073,5.824401 C16.0468468,5.824401 16.9068566,6.68739023 16.9068566,7.75220591 L16.9068566,24.5538961 C16.9068566,25.6187118 16.0468468,26.481701 14.9857073,26.481701" id="Fill-6" fill="#FFFFFF"></path>
                <path d="M17.1841061,2.34801793 C17.1841061,3.56642872 16.1999116,4.55403284 14.9857073,4.55403284 C13.7715029,4.55403284 12.7873084,3.56642872 12.7873084,2.34801793 C12.7873084,1.12960715 13.7715029,0.142003024 14.9857073,0.142003024 C16.1999116,0.142003024 17.1841061,1.12960715 17.1841061,2.34801793" id="Fill-7" fill="#FFFFFF"></path>
                <polygon id="Fill-8" fill="#FFFFFF" points="28.9393615 18.6690506 30.7084774 18.6690506 30.7084774 9.09150556 28.9393615 9.09150556"></polygon>
                <path d="M32.5431925,18.6690506 L32.5431925,11.6363819 L33.9114931,11.6363819 L34.13222,12.6680774 C34.8040963,11.9804184 35.5690079,11.6363819 36.4279862,11.6363819 C38.0875639,11.6363819 38.9176621,12.5028902 38.9176621,14.2352857 L38.9176621,18.6690506 L37.1485462,18.6690506 L37.1485462,14.2352857 C37.1485462,13.4584091 36.7636149,13.0698673 35.9943713,13.0698673 C35.4200688,13.0698673 34.8593811,13.2998459 34.3123084,13.7598032 L34.3123084,18.6690506 L32.5431925,18.6690506" id="Fill-9" fill="#FFFFFF"></path>
                <polyline id="Fill-10" fill="#FFFFFF" points="39.7520923 11.6363819 41.6208448 11.6363819 43.3227112 16.5524604 45.0918271 11.6363819 46.9605796 11.6363819 44.1105206 18.6690506 42.4284578 18.6690506 39.7520923 11.6363819"></polyline>
                <path d="M47.794391,18.6688436 L49.5635069,18.6688436 L49.5635069,11.6363819 L47.794391,11.6363819 L47.794391,18.6688436 Z M47.794391,10.4980807 L49.5635069,10.4980807 L49.5635069,9.09150556 L47.794391,9.09150556 L47.794391,10.4980807 Z" id="Fill-11" fill="#FFFFFF"></path>
                <path d="M52.6670923,14.5433039 L55.65722,14.5433039 L55.65722,14.4896905 C55.65722,13.5163695 55.1677014,13.029502 54.188664,13.029502 C53.2539784,13.029502 52.7469253,13.5341716 52.6670923,14.5433039 Z M54.188664,11.6363819 C56.315275,11.6363819 57.3790963,12.7260378 57.3790963,14.9051425 C57.3790963,15.1949446 57.3588802,15.4855747 57.3188605,15.7755838 L52.6670923,15.7755838 C52.6670923,16.7669139 53.3919843,17.2624755 54.8430059,17.2624755 C55.5503635,17.2624755 56.257721,17.195407 56.9652849,17.06127 L56.9652849,18.4678452 C56.3464244,18.6019821 55.5947151,18.6690506 54.709332,18.6690506 C52.1687033,18.6690506 50.8979764,17.470098 50.8979764,15.0723997 C50.8979764,12.7817212 51.9952161,11.6363819 54.188664,11.6363819 L54.188664,11.6363819 Z" id="Fill-12" fill="#FFFFFF"></path>
                <path d="M58.7069646,18.6690506 L58.7069646,11.6363819 L60.0752652,11.6363819 L60.2959921,12.5339404 C60.9096955,11.9359131 61.5597053,11.6363819 62.2445776,11.6363819 L62.2445776,13.0698673 C61.5859037,13.0698673 60.9967485,13.3443512 60.4760806,13.8935262 L60.4760806,18.6690506 L58.7069646,18.6690506" id="Fill-13" fill="#FFFFFF"></path>
                <path d="M63.1458448,10.4980807 L64.4539096,10.4980807 L64.7210511,11.6363819 L66.4831532,11.6363819 L66.4831532,13.0429571 L64.9143418,13.0429571 L64.9143418,16.2777694 C64.9143418,16.9343781 65.1969548,17.2624755 65.7625933,17.2624755 L66.4831532,17.2624755 L66.4831532,18.6690506 L64.9077407,18.6690506 C63.7333497,18.6690506 63.1458448,18.0370751 63.1458448,16.773538 L63.1458448,10.4980807" id="Fill-14" fill="#FFFFFF"></path>
                <path d="M69.119499,14.5433039 L72.1096267,14.5433039 L72.1096267,14.4896905 C72.1096267,13.5163695 71.6201081,13.029502 70.6410707,13.029502 C69.7065914,13.029502 69.1995383,13.5341716 69.119499,14.5433039 Z M70.6410707,11.6363819 C72.767888,11.6363819 73.8317092,12.7260378 73.8317092,14.9051425 C73.8317092,15.1949446 73.8114931,15.4855747 73.7714735,15.7755838 L69.119499,15.7755838 C69.119499,16.7669139 69.844391,17.2624755 71.2954126,17.2624755 C72.0029764,17.2624755 72.710334,17.195407 73.4176916,17.06127 L73.4176916,18.4678452 C72.7990373,18.6019821 72.0473281,18.6690506 71.161945,18.6690506 C68.6213163,18.6690506 67.3503831,17.470098 67.3503831,15.0723997 C67.3503831,12.7817212 68.4476228,11.6363819 70.6410707,11.6363819 L70.6410707,11.6363819 Z" id="Fill-15" fill="#FFFFFF"></path>
                <path d="M83.3359627,18.4678452 C82.7577407,18.6019821 82.1564145,18.6690506 81.5338409,18.6690506 C79.0421022,18.6690506 77.796336,17.4525029 77.796336,15.0192003 C77.796336,12.764126 79.0421022,11.6363819 81.5338409,11.6363819 C82.1564145,11.6363819 82.7577407,11.7034504 83.3359627,11.8375874 L83.3359627,13.2441625 C82.7577407,13.1100255 82.2013851,13.0429571 81.6675147,13.0429571 C80.2657957,13.0429571 79.5650393,13.7018428 79.5650393,15.0192003 C79.5650393,16.5145791 80.2657957,17.2624755 81.6675147,17.2624755 C82.2013851,17.2624755 82.7577407,17.195407 83.3359627,17.06127 L83.3359627,18.4678452" id="Fill-16" fill="#FFFFFF"></path>
                <path d="M87.641169,17.329544 C88.7757466,17.329544 89.3430354,16.5948957 89.3430354,15.1255991 C89.3430354,13.6927347 88.7757466,12.9760956 87.641169,12.9760956 C86.5061788,12.9760956 85.93889,13.6927347 85.93889,15.1255991 C85.93889,16.5948957 86.5061788,17.329544 87.641169,17.329544 Z M84.1703929,15.1531303 C84.1703929,12.7951763 85.3272495,11.6165098 87.641169,11.6165098 C89.9546758,11.6165098 91.1115324,12.7951763 91.1115324,15.1531303 C91.1115324,17.5059092 89.9546758,18.6822987 87.641169,18.6822987 C85.3361198,18.6822987 84.179057,17.5059092 84.1703929,15.1531303 L84.1703929,15.1531303 Z" id="Fill-17" fill="#FFFFFF"></path>
                <path d="M92.4470334,18.6690506 L92.4470334,11.6363819 L93.815334,11.6363819 L94.035442,12.6680774 C94.7073183,11.9804184 95.4726424,11.6363819 96.3312083,11.6363819 C97.9907859,11.6363819 98.8208841,12.5028902 98.8208841,14.2352857 L98.8208841,18.6690506 L97.052387,18.6690506 L97.052387,14.2352857 C97.052387,13.4584091 96.6674558,13.0698673 95.8975933,13.0698673 C95.3237033,13.0698673 94.7630157,13.2998459 94.2155305,13.7598032 L94.2155305,18.6690506 L92.4470334,18.6690506" id="Fill-18" fill="#FFFFFF"></path>
                <polyline id="Fill-19" fill="#FFFFFF" points="35.4737033 20.6136227 35.4737033 22.1404657 30.6946562 22.1404657 30.6946562 24.5514121 35.2469941 24.5514121 35.2469941 26.1386995 30.6750589 26.1386995 30.6750589 28.6502486 35.5673576 28.6502486 35.5673576 30.1907537 28.9393615 30.1907537 28.9393615 20.6136227 35.4737033 20.6136227"></polyline>
                <polyline id="Fill-20" fill="#FFFFFF" points="38.8240079 26.6744194 36.201277 23.158499 38.1702849 23.158499 39.8053143 25.3551988 41.4407564 23.158499 43.4097642 23.158499 40.7930157 26.6744194 43.4097642 30.1907537 41.4407564 30.1907537 39.8053143 27.9942609 38.1702849 30.1907537 36.201277 30.1907537 38.8240079 26.6744194"></polyline>
                <path d="M46.0126916,28.3556855 C46.4529077,28.5968422 46.9271611,28.7173171 47.4342141,28.7173171 C48.4887525,28.7173171 49.0160216,27.9737677 49.0160216,26.487083 C49.0160216,25.2233389 48.4328487,24.5915703 47.2671218,24.5915703 C46.7646071,24.5915703 46.3462574,24.6228276 46.0126916,24.685549 L46.0126916,28.3556855 Z M44.2435756,23.4464381 C45.1739293,23.2547547 46.1572986,23.158499 47.1936837,23.158499 C49.5744401,23.158499 50.7649214,24.272374 50.7649214,26.5003311 C50.7649214,28.9607509 49.6565422,30.1907537 47.4408153,30.1907537 C46.9692436,30.1907537 46.4929273,30.0793869 46.0126916,29.8562393 L46.0126916,32.7358371 L44.2435756,32.7358371 L44.2435756,23.4464381 L44.2435756,23.4464381 Z" id="Fill-21" fill="#FFFFFF"></path>
                <path d="M53.5349411,26.065214 L56.5250688,26.065214 L56.5250688,26.0118076 C56.5250688,25.0382796 56.0355501,24.5514121 55.0565128,24.5514121 C54.1218271,24.5514121 53.6147741,25.0562887 53.5349411,26.065214 Z M55.0565128,23.158499 C57.1831238,23.158499 58.246945,24.2481549 58.246945,26.4266386 C58.246945,26.7172687 58.2267289,27.0074848 58.1867092,27.2974939 L53.5349411,27.2974939 C53.5349411,28.288617 54.259833,28.7843856 55.7108546,28.7843856 C56.4182122,28.7843856 57.1255697,28.7173171 57.8331336,28.5831801 L57.8331336,29.9897553 C57.2142731,30.1238922 56.4625639,30.1907537 55.5771807,30.1907537 C53.0365521,30.1907537 51.7658251,28.9920081 51.7658251,26.5943098 C51.7658251,24.3036313 52.8630648,23.158499 55.0565128,23.158499 L55.0565128,23.158499 Z" id="Fill-22" fill="#FFFFFF"></path>
                <path d="M59.5748134,30.1907537 L59.5748134,23.158499 L60.9431139,23.158499 L61.1638409,24.0558505 C61.7775442,23.4574092 62.427554,23.158499 63.1124263,23.158499 L63.1124263,24.5915703 C62.4537525,24.5915703 61.8645972,24.8662613 61.3439293,25.4156433 L61.3439293,30.1907537 L59.5748134,30.1907537" id="Fill-23" fill="#FFFFFF"></path>
                <path d="M64.0136935,22.0195768 L65.3217583,22.0195768 L65.5884872,23.158499 L67.351002,23.158499 L67.351002,24.5650742 L65.7821906,24.5650742 L65.7821906,27.7996795 C65.7821906,28.4562882 66.0648035,28.7843856 66.6298232,28.7843856 L67.351002,28.7843856 L67.351002,30.1907537 L65.7755894,30.1907537 C64.6005796,30.1907537 64.0136935,29.5589852 64.0136935,28.2952411 L64.0136935,22.0195768" id="Fill-24" fill="#FFFFFF"></path>
                <path d="M71.6892141,28.8512471 C72.8235855,28.8512471 73.3908743,28.1168058 73.3908743,26.6481302 C73.3908743,25.2146448 72.8235855,24.4982127 71.6892141,24.4982127 C70.5540177,24.4982127 69.9869352,25.2146448 69.9869352,26.6481302 C69.9869352,28.1168058 70.5540177,28.8512471 71.6892141,28.8512471 Z M68.2182318,26.6744194 C68.2182318,24.3172934 69.3752947,23.1382129 71.6892141,23.1382129 C74.0025147,23.1382129 75.1593713,24.3172934 75.1593713,26.6744194 C75.1593713,29.0276123 74.0025147,30.2040018 71.6892141,30.2040018 C69.3839587,30.2040018 68.2271022,29.0276123 68.2182318,26.6744194 L68.2182318,26.6744194 Z" id="Fill-25" fill="#FFFFFF"></path>
                <path d="M76.4944597,29.8562393 L76.4944597,28.3825957 C77.2729862,28.6953749 78.1719843,28.8512471 79.1910413,28.8512471 C79.9520334,28.8512471 80.3326326,28.6057433 80.3326326,28.1145287 C80.3326326,27.6458774 80.0764244,27.4111377 79.5650393,27.4111377 L78.2967878,27.4111377 C76.8727898,27.4111377 76.1608939,26.7079536 76.1608939,25.3013785 C76.1608939,23.8283558 77.1995481,23.0916375 79.2780943,23.0916375 C80.1591454,23.0916375 80.9886248,23.2255675 81.7671513,23.4932204 L81.7671513,24.966864 C80.9886248,24.6540848 80.1432613,24.4982127 79.2310609,24.4982127 C78.2745088,24.4982127 77.7959234,24.7437164 77.7959234,25.234931 C77.7959234,25.7035824 78.073998,25.9377011 78.6303536,25.9377011 L79.7649312,25.9377011 C81.3226031,25.9377011 82.1011297,26.6408851 82.1011297,28.0474603 C82.1011297,29.5211039 81.1090963,30.2578222 79.1242043,30.2578222 C78.1501179,30.2578222 77.2729862,30.1238922 76.4944597,29.8562393" id="Fill-26" fill="#FFFFFF"></path>
                <polygon id="Fill-27" fill="#FFFFFF" points="83.1688703 30.1907537 84.9379862 30.1907537 84.9379862 28.5496459 83.1688703 28.5496459"></polygon>
                <path d="M86.4393418,30.1907537 L86.4393418,23.158499 L87.8076424,23.158499 L88.0145481,24.1767394 C88.6420727,23.4975675 89.3966699,23.158499 90.277721,23.158499 C91.1585658,23.158499 91.7615422,23.4799723 92.0862377,24.122919 C92.8028782,23.4799723 93.5525246,23.158499 94.3353831,23.158499 C95.946277,23.158499 96.7518271,24.0492264 96.7518271,25.8304743 L96.7518271,30.1907537 L94.9831238,30.1907537 L94.9831238,25.7640268 C94.9831238,24.9828032 94.631611,24.5915703 93.9285855,24.5915703 C93.4035855,24.5915703 92.8981827,24.8283801 92.4136149,25.3013785 L92.4136149,30.1907537 L90.644499,30.1907537 L90.644499,25.7838989 C90.644499,24.9892202 90.3198035,24.5915703 89.6697937,24.5915703 C89.1540766,24.5915703 88.6668271,24.8283801 88.2084578,25.3013785 L88.2084578,30.1907537 L86.4393418,30.1907537" id="Fill-28" fill="#FFFFFF"></path>
                <polyline id="Fill-29" fill="#FFFFFF" points="100.209401 26.6744194 97.5862574 23.158499 99.5552652 23.158499 101.190088 25.3551988 102.825737 23.158499 104.794538 23.158499 102.178409 26.6744194 104.794538 30.1907537 102.825737 30.1907537 101.190088 27.9942609 99.5552652 30.1907537 97.5862574 30.1907537 100.209401 26.6744194"></polyline>
            </g>
        </g>
    </g>
</svg>