<?xml version="1.0" encoding="UTF-8"?>
<svg width="20px" height="17px" viewBox="0 0 20 17" version="1.1" xmlns="http://www.w3.org/2000/svg" xmlns:xlink="http://www.w3.org/1999/xlink">
    <!-- Generator: Sketch 43.1 (39012) - http://www.bohemiancoding.com/sketch -->
    <title>mail</title>
    <desc>Created with Sketch.</desc>
    <defs></defs>
    <g id="Page-1" stroke="none" stroke-width="1" fill="none" fill-rule="evenodd" font-size="20" font-family="FontAwesome" font-weight="normal">
        <g id="Refer-B1" transform="translate(-808.000000, -456.000000)" fill="#FFFFFF">
            <g id="Otro" transform="translate(790.000000, 441.000000)">
                <text id="mail">
                    <tspan x="18" y="30"></tspan>
                </text>
            </g>
        </g>
    </g>
</svg>