<?xml version="1.0" encoding="UTF-8"?>
<svg width="50px" height="60px" viewBox="0 0 50 60" version="1.1" xmlns="http://www.w3.org/2000/svg" xmlns:xlink="http://www.w3.org/1999/xlink">
    <!-- Generator: Sketch 42 (36781) - http://www.bohemiancoding.com/sketch -->
    <title>money</title>
    <desc>Created with Sketch.</desc>
    <defs></defs>
    <g id="Page-1" stroke="none" stroke-width="1" fill="none" fill-rule="evenodd">
        <g id="money" fill-rule="nonzero" fill="#358ACF">
            <g id="Capa_1">
                <g id="Group">
                    <path d="M30.033,49.65 C28.103,49.65 26.533,51.22 26.533,53.15 C26.533,55.08 28.103,56.65 30.033,56.65 C31.963,56.65 33.533,55.08 33.533,53.15 C33.533,51.22 31.963,49.65 30.033,49.65 Z M30.033,54.65 C29.206,54.65 28.533,53.977 28.533,53.15 C28.533,52.323 29.206,51.65 30.033,51.65 C30.86,51.65 31.533,52.323 31.533,53.15 C31.533,53.977 30.861,54.65 30.033,54.65 Z" id="Shape"></path>
                    <path d="M8.568,21.211 L12.103,24.746 C12.298,24.941 12.554,25.039 12.81,25.039 C13.066,25.039 13.322,24.941 13.517,24.746 C13.908,24.355 13.908,23.723 13.517,23.332 L11.325,21.14 C12.426,19.475 12.426,17.29 11.325,15.625 L15.709,11.24 C17.33,12.318 19.602,12.318 21.225,11.24 L23.417,13.432 C23.808,13.823 24.44,13.823 24.831,13.432 C25.222,13.041 25.222,12.409 24.831,12.018 L21.295,8.482 L20.588,9.189 C19.454,10.322 17.479,10.322 16.345,9.189 L15.638,8.482 L8.567,15.553 L9.274,16.26 C10.443,17.43 10.443,19.333 9.274,20.503 L8.568,21.211 Z" id="Shape"></path>
                    <path d="M38.337,28.353 C37.236,30.018 37.236,32.203 38.337,33.868 L33.953,38.253 C32.33,37.174 30.058,37.174 28.437,38.253 L26.245,36.061 C25.854,35.67 25.222,35.67 24.831,36.061 C24.44,36.452 24.44,37.084 24.831,37.475 L28.367,41.011 L29.074,40.304 C30.208,39.17 32.183,39.172 33.317,40.304 L34.024,41.011 L41.095,33.94 L40.388,33.233 C39.219,32.063 39.219,30.16 40.388,28.99 L41.095,28.283 L37.56,24.748 C37.169,24.357 36.537,24.357 36.146,24.748 C35.755,25.139 35.755,25.771 36.146,26.162 L38.337,28.353 Z" id="Shape"></path>
                    <circle id="Oval" cx="42.509" cy="31.11" r="1"></circle>
                    <circle id="Oval" cx="31.195" cy="42.424" r="1"></circle>
                    <path d="M19.174,7.776 C19.565,7.385 19.932,6.752 19.542,6.362 C19.151,5.971 18.518,5.971 18.128,6.362 C17.737,6.753 17.37,7.386 17.76,7.776 C18.151,8.166 18.784,8.166 19.174,7.776 Z" id="Shape"></path>
                    <circle id="Oval" cx="7.154" cy="18.382" r="1"></circle>
                    <path d="M46.533,37.15 C46.533,36.27 46.39,35.406 46.12,34.57 L49.575,31.115 L45.02,26.503 C45.963,25.663 46.533,24.453 46.533,23.15 C46.533,20.669 44.514,18.65 42.033,18.65 C41.851,18.65 41.671,18.668 41.493,18.69 C41.515,18.512 41.533,18.333 41.533,18.15 C41.533,15.669 39.514,13.65 37.033,13.65 C36.851,13.65 36.671,13.668 36.493,13.69 C36.515,13.512 36.533,13.333 36.533,13.15 C36.533,10.669 34.514,8.65 32.033,8.65 C31.851,8.65 31.671,8.668 31.493,8.69 C31.515,8.512 31.533,8.333 31.533,8.15 C31.533,5.543 29.795,3.65 27.401,3.65 C26.093,3.65 24.773,4.216 23.857,5.072 L18.847,0 L0.075,18.374 L9.318,27.618 C8.824,28.34 8.534,29.211 8.534,30.15 C8.534,31.714 9.338,33.092 10.553,33.898 C10.613,33.978 10.685,34.059 10.779,34.139 L21.534,44.854 L21.534,46.65 L19.534,46.65 L19.534,59.65 L37.534,59.65 L45.534,59.65 L45.534,46.65 L43.534,46.65 L43.534,43.621 C45.447,42 46.533,39.669 46.533,37.15 Z M10.533,30.15 C10.533,29.493 10.793,28.899 11.208,28.453 L11.361,28.313 C11.709,27.995 12.127,27.785 12.568,27.697 C12.719,27.668 12.873,27.65 13.032,27.65 L15.233,27.65 L23.032,27.65 C24.41,27.65 25.532,28.771 25.532,30.15 C25.532,30.312 25.514,30.469 25.484,30.623 C25.273,31.675 24.374,32.515 23.264,32.622 L22.967,32.65 L17.177,32.65 L14.349,32.65 L13.032,32.65 C11.655,32.65 10.533,31.529 10.533,30.15 Z M19.175,19.089 C22.294,15.97 27.369,15.97 30.488,19.089 C31.999,20.6 32.831,22.61 32.831,24.746 C32.831,26.882 31.999,28.892 30.488,30.403 C29.483,31.408 28.236,32.112 26.89,32.468 C26.998,32.289 27.092,32.101 27.175,31.907 C27.18,31.895 27.183,31.881 27.189,31.869 C27.284,31.64 27.355,31.4 27.412,31.154 C27.427,31.09 27.44,31.027 27.452,30.963 C27.5,30.698 27.534,30.429 27.534,30.15 C27.534,27.669 25.515,25.65 23.034,25.65 L16.889,25.65 C16.611,23.232 17.437,20.827 19.175,19.089 Z M44.533,23.15 C44.533,23.908 44.186,24.612 43.614,25.078 L40.126,21.546 C40.594,20.989 41.285,20.649 42.033,20.649 C43.412,20.65 44.533,21.771 44.533,23.15 Z M39.533,18.15 C39.533,18.893 39.196,19.58 38.645,20.047 L35.157,16.515 C35.624,15.978 36.3,15.649 37.033,15.649 C38.412,15.65 39.533,16.771 39.533,18.15 Z M34.533,13.15 C34.533,13.877 34.207,14.55 33.676,15.016 L30.188,11.485 C30.654,10.968 31.315,10.651 32.032,10.651 C33.412,10.65 34.533,11.771 34.533,13.15 Z M27.401,5.65 C28.874,5.65 29.533,6.906 29.533,8.15 C29.533,8.862 29.219,9.519 28.708,9.984 L25.258,6.491 C25.802,5.998 26.618,5.65 27.401,5.65 Z M18.823,2.822 L22.727,6.774 L22.641,6.97 L27.641,11.97 L28.214,12.543 L32.641,16.97 L33.214,17.543 L37.641,21.97 L38.214,22.543 L43.214,27.543 L43.23,27.536 L46.756,31.106 L31.212,46.65 L31.179,46.65 L19.179,34.65 L23.033,34.65 C23.135,34.65 23.231,34.627 23.332,34.62 C23.83,34.696 24.329,34.737 24.826,34.737 C27.459,34.737 30.019,33.699 31.901,31.817 C33.79,29.928 34.83,27.417 34.83,24.746 C34.83,22.075 33.79,19.563 31.901,17.675 C28.003,13.777 21.658,13.777 17.759,17.675 C15.64,19.794 14.607,22.706 14.879,25.651 L13.032,25.651 C12.768,25.651 12.509,25.683 12.252,25.73 C12.169,25.745 12.087,25.761 12.006,25.78 C11.82,25.825 11.638,25.882 11.46,25.95 C11.305,26.008 11.157,26.078 11.011,26.153 C10.938,26.191 10.862,26.222 10.791,26.263 L2.919,18.39 L18.823,2.822 Z M23.181,43.634 C23.136,43.595 23.089,43.56 23.001,43.494 L14.124,34.65 L16.351,34.65 L28.351,46.65 L23.534,46.65 L23.534,43.932 L23.181,43.634 Z M21.533,57.65 L21.533,48.65 L29.211,48.65 L29.958,48.65 C30.097,48.65 30.234,48.661 30.37,48.671 L31.194,49.495 L31.741,48.948 C33.942,49.694 35.532,51.775 35.532,54.224 L35.532,57.65 L21.533,57.65 L21.533,57.65 Z M43.533,57.65 L37.533,57.65 L37.533,54.224 C37.533,52.018 36.579,50.035 35.069,48.65 L43.533,48.65 L43.533,57.65 Z M34.04,46.65 L37.769,42.921 L44.466,36.224 C44.511,36.53 44.533,36.838 44.533,37.15 C44.533,39.205 43.585,41.097 41.931,42.341 L41.533,42.641 L41.533,46.65 L34.04,46.65 Z" id="Shape"></path>
                </g>
            </g>
        </g>
    </g>
</svg>