<?xml version="1.0" encoding="UTF-8"?>
<svg width="20px" height="21px" viewBox="0 0 20 21" version="1.1" xmlns="http://www.w3.org/2000/svg" xmlns:xlink="http://www.w3.org/1999/xlink">
    <!-- Generator: Sketch 42 (36781) - http://www.bohemiancoding.com/sketch -->
    <title></title>
    <desc>Created with Sketch.</desc>
    <defs></defs>
    <g id="Page-1" stroke="none" stroke-width="1" fill="none" fill-rule="evenodd" font-size="20" font-family="simple-line-icons" font-weight="normal">
        <g id="New-Account-1" transform="translate(-445.000000, -281.000000)" fill="#E07941">
            <g id="Login-Input" transform="translate(441.000000, 281.000000)">
                <text id="">
                    <tspan x="4" y="19"></tspan>
                </text>
            </g>
        </g>
    </g>
</svg>