<svg xmlns="http://www.w3.org/2000/svg" width="100" height="81" viewBox="0 0 100 81">
  <metadata><?xpacket begin="﻿" id="W5M0MpCehiHzreSzNTczkc9d"?>
<x:xmpmeta xmlns:x="adobe:ns:meta/" x:xmptk="Adobe XMP Core 5.6-c138 79.159824, 2016/09/14-01:09:01        ">
   <rdf:RDF xmlns:rdf="http://www.w3.org/1999/02/22-rdf-syntax-ns#">
      <rdf:Description rdf:about=""/>
   </rdf:RDF>
</x:xmpmeta>
                                                                                                    
                                                                                                    
                                                                                                    
                                                                                                    
                                                                                                    
                                                                                                    
                                                                                                    
                                                                                                    
                                                                                                    
                                                                                                    
                                                                                                    
                                                                                                    
                                                                                                    
                                                                                                    
                                                                                                    
                                                                                                    
                                                                                                    
                                                                                                    
                                                                                                    
                                                                                                    
                           
<?xpacket end="w"?></metadata>
<defs>
    <style>
      .cls-1 {
        fill: #fff;
        fill-rule: evenodd;
      }
    </style>
  </defs>
  <path id="Forma_1" data-name="Forma 1" class="cls-1" d="M97.242,1.727A41.345,41.345,0,0,1,84.207,6.693,20.509,20.509,0,0,0,49.25,25.34,58.3,58.3,0,0,1,6.966,3.97a20.438,20.438,0,0,0,6.35,27.3A20.548,20.548,0,0,1,4.024,28.7V28.96A20.493,20.493,0,0,0,20.478,49.018a20.523,20.523,0,0,1-9.267.346A20.54,20.54,0,0,0,30.37,63.573a41.25,41.25,0,0,1-25.476,8.75,43.31,43.31,0,0,1-4.9-.28,58.228,58.228,0,0,0,31.448,9.188c37.734,0,58.367-31.166,58.367-58.194l-0.067-2.65A41.221,41.221,0,0,0,100,9.814a41.123,41.123,0,0,1-11.779,3.222A20.576,20.576,0,0,0,97.242,1.727Z"/>
</svg>
