<?xml version="1.0" encoding="utf-8"?>
<!-- Generator: Adobe Illustrator 17.0.0, SVG Export Plug-In . SVG Version: 6.00 Build 0)  -->
<!DOCTYPE svg PUBLIC "-//W3C//DTD SVG 1.1//EN" "http://www.w3.org/Graphics/SVG/1.1/DTD/svg11.dtd">
<svg version="1.1" id="Слой_1" xmlns="http://www.w3.org/2000/svg" xmlns:xlink="http://www.w3.org/1999/xlink" x="0px" y="0px"
	 width="263px" height="357px" viewBox="-36.055 -48.87 263 357" enable-background="new -36.055 -48.87 263 357"
	 xml:space="preserve">
<polygon fill="#F0F2F5" points="12.015,166.251 82.796,287.501 156.668,160.325 "/>
<circle fill="#F0F2F5" stroke="#F0F2F5" stroke-width="14" stroke-miterlimit="10" cx="85.519" cy="72.199" r="107.61"/>
<ellipse fill="#FFFFFF" stroke="#C8CDD4" stroke-width="14" stroke-miterlimit="10" cx="82.199" cy="68.615" rx="39.125" ry="38.817"/>
<path fill="#80B4D8" stroke="#5A6772" stroke-width="14" stroke-linecap="round" stroke-linejoin="round" stroke-miterlimit="10" d="
	M-14.028,117.94"/>
<line fill="none" stroke="#5A6772" stroke-width="14" stroke-linecap="round" stroke-miterlimit="10" x1="-23.869" y1="296.639" x2="129.243" y2="296.639"/>
<line fill="none" stroke="#5A6772" stroke-width="14" stroke-linecap="round" stroke-miterlimit="10" x1="210.688" y1="296.639" x2="212.837" y2="296.639"/>
<line fill="none" stroke="#5A6772" stroke-width="14" stroke-linecap="round" stroke-miterlimit="10" x1="175.253" y1="296.91" x2="153.579" y2="296.91"/>
<circle fill="none" stroke="#5A6772" stroke-width="14" stroke-miterlimit="10" cx="85.519" cy="72.199" r="34.426"/>
<path fill="#C8CDD4" d="M86.729-42.018c-0.247,0-0.49,0.02-0.737,0.021v12.675c0.247-0.003,0.49-0.021,0.737-0.021
	c45.51,0,82.535,46.287,82.535,99.494c0,13.907-2.542,27.127-7.095,39.079l-64.51,140.608c-1.28,2.02-9.612,21.579-14.389,22.044
	c-0.421,0.041-5.846,0.039-6.277-0.003l-11-9l-10.597-13.642l19.529,42.434c1.186,4.075,4.478,7.012,8.365,7.012h0.145h5.331h1.259
	c3.258,0,6.252-2.094,7.792-5.451l15.169-33.062c0.006-0.014,0.013-0.027,0.019-0.041l66.051-143.962
	c0.468-1.021,0.766-2.093,0.923-3.175c4.482-13.278,6.971-27.72,6.971-42.838C186.948,5.544,141.99-42.018,86.729-42.018z"/>
<g>
	
		<polyline fill="#80B4D8" stroke="#5A6772" stroke-width="14" stroke-linecap="round" stroke-linejoin="round" stroke-miterlimit="10" points="
		-11.908,119.737 62.357,259.563 81.605,295.611 87.939,295.611 	"/>
	
		<polyline fill="#80B4D8" stroke="#5A6772" stroke-width="14" stroke-linecap="round" stroke-linejoin="round" stroke-miterlimit="10" points="
		183.802,117.94 89.437,295.611 81.434,295.611 	"/>
</g>
<path fill="none" stroke="#5A6772" stroke-width="14" stroke-linecap="round" stroke-linejoin="round" stroke-miterlimit="10" d="
	M103.754,268.754c0,0-15.272,27.761-34.462,3.024"/>
<path fill="#5A6772" d="M-2.481,122.5c-8.511-14.833-13.383-32.009-13.383-50.302c0-55.903,45.48-101.384,101.384-101.384
	s101.384,45.48,101.384,101.384c0,18.293-4.871,35.469-13.383,50.302h15.827c7.399-15.212,11.556-32.28,11.556-50.302
	c0-63.623-51.761-115.383-115.384-115.383S-29.864,8.575-29.864,72.198c0,18.022,4.156,35.09,11.556,50.302H-2.481z"/>
</svg>
