<?xml version="1.0" encoding="utf-8"?>
<!-- Generator: Adobe Illustrator 17.0.0, SVG Export Plug-In . SVG Version: 6.00 Build 0)  -->
<!DOCTYPE svg PUBLIC "-//W3C//DTD SVG 1.1//EN" "http://www.w3.org/Graphics/SVG/1.1/DTD/svg11.dtd">
<svg version="1.1" id="Слой_1" xmlns="http://www.w3.org/2000/svg" xmlns:xlink="http://www.w3.org/1999/xlink" x="0px" y="0px"
	 width="459.494px" height="434.177px" viewBox="0 0 459.494 434.177" enable-background="new 0 0 459.494 434.177"
	 xml:space="preserve">
<path fill="none" stroke="#5A6772" stroke-width="14" stroke-linecap="round" stroke-linejoin="round" stroke-miterlimit="10" d="
	M135.958,210.63c9.917,0.408,12.5-5.318,12.5-5.318l14.099-33.168h71.401l14.099,33.168c0,0,2.583,5.726,12.5,5.318"/>
<line fill="none" stroke="#5A6772" stroke-width="14" stroke-linecap="round" stroke-miterlimit="10" x1="314.76" y1="147.156" x2="315" y2="147.156"/>
<g>
	
		<line fill="none" stroke="#5A6772" stroke-width="14" stroke-linecap="round" stroke-miterlimit="10" x1="11.991" y1="419.43" x2="365.136" y2="419.43"/>
	
		<line fill="none" stroke="#5A6772" stroke-width="14" stroke-linecap="round" stroke-miterlimit="10" x1="384.447" y1="419.43" x2="399.102" y2="419.43"/>
	
		<line fill="none" stroke="#5A6772" stroke-width="14" stroke-linecap="round" stroke-miterlimit="10" x1="419.447" y1="419.43" x2="424.283" y2="419.43"/>
</g>
<g>
	<path fill="#FFFFFF" d="M342.535,402.613c0,4.629-3.926,8.382-8.769,8.382H62.899c-4.843,0-8.769-3.753-8.769-8.382V216.354
		c0-4.629,3.926-8.382,8.769-8.382h270.867c4.843,0,8.769,3.753,8.769,8.382V402.613z"/>
</g>
<path fill="#C8CDD4" d="M309,297.06c0,0,15.677-2.5,15.677,18.25s10.823-9.172,10.823-9.172l-1.5-19.334l-11.75-2.276L309,289.31
	V297.06z"/>
<path fill="#C8CDD4" d="M309,270.604c0,0,15.677,1.5,15.677-19.25s10.823,9.172,10.823,9.172L334,279.86l-11.75,2.276L309,277.354
	V270.604z"/>
<path fill="#C8CDD4" d="M323.486,203.619c0.385,1.761,0.593-0.415,0.593,1.458v2.486c0.382,0.911,0.598,8.903,0.598,9.944v176.065
	c0,4.375-3.711,7.923-8.289,7.923H60.345c-1.805,0-3.471-0.558-4.832-1.495h-3.701c-2.46,0-4.839-0.343-7.098-0.97
	c2.548,11.645,3.07,20.401,15.632,20.401h256.042c14.46,0,28.225-8.6,28.225-22.858l-2-179.065
	C342.612,205.674,334.507,206.679,323.486,203.619z"/>
<path fill="#C8CDD4" d="M338.453,207.877h-14.371c0.768,1.591,1.242,3.739,1.242,6.108v45.222
	c-1.852,5.567-6.426,9.103-10.411,11.219l12.203-3.202c0.053-0.014,0.106-0.027,0.159-0.039c0.563-0.134,12.052-2.988,15.098-12.144
	v-39.43C342.375,211.339,340.619,207.877,338.453,207.877z"/>
<path fill="none" stroke="#C8CDD4" stroke-width="18" stroke-linecap="round" stroke-linejoin="round" stroke-miterlimit="10" d="
	M199.1,317.341l127.103-34.198c0,0,21.942-5.167,20.381-25"/>
<path fill="none" stroke="#C8CDD4" stroke-width="18" stroke-linejoin="round" stroke-miterlimit="10" d="M200.414,317.341
	L70.081,283.143c0,0-22.206-6.401-20.726-23.896"/>
<g>
	<path fill="#5A6772" d="M333.766,207.972c4.843,0,8.769,3.753,8.769,8.382v186.259c0,4.629-3.926,8.382-8.769,8.382H62.899
		c-4.843,0-8.769-3.753-8.769-8.382V216.354c0-4.629,3.926-8.382,8.769-8.382H333.766 M333.766,193.972H62.899
		c-12.555,0-22.769,10.04-22.769,22.382v186.259c0,12.341,10.214,22.382,22.769,22.382h270.867c12.555,0,22.769-10.04,22.769-22.382
		V216.354C356.535,204.013,346.321,193.972,333.766,193.972L333.766,193.972z"/>
</g>
<path fill="none" stroke="#5A6772" stroke-width="14" stroke-linecap="round" stroke-linejoin="round" stroke-miterlimit="10" d="
	M199.1,306.341l129.573-34.198c0,0,22.369-5.167,20.777-25"/>
<path fill="none" stroke="#5A6772" stroke-width="14" stroke-linecap="round" stroke-linejoin="round" stroke-miterlimit="10" d="
	M197.414,306.341L67.081,272.143c0,0-21.515-5.167-19.914-25"/>
<path fill="#F5A623" stroke="#5A6772" stroke-width="14" stroke-miterlimit="10" d="M218.137,314.18
	c0,6.185-5.014,11.198-11.198,11.198h-15.678c-6.185,0-11.198-5.014-11.198-11.198v-15.678c0-6.185,5.014-11.198,11.198-11.198
	h15.678c6.185,0,11.198,5.014,11.198,11.198V314.18z"/>
<path fill="none" stroke="#5A6772" stroke-width="14" stroke-miterlimit="10" d="M268.214,205.685V42.935
	c0-14.981,12.144-27.125,27.125-27.125h124.323c14.981,0,27.125,12.144,27.125,27.125v162.75c0,14.981-12.144,27.125-27.125,27.125
	H295.339"/>
<g>
	<polygon fill="#FFFFFF" points="268.333,62.81 268.333,207.156 256,228.477 282,235.477 418.5,235.477 441,221.477 
		446.683,207.972 446.683,124.31 446.683,41.81 441.667,28.81 431.333,19.477 412.667,15.477 339,15.477 292.333,15.477 
		279.667,20.81 270.667,32.143 265,45.81 	"/>
	<g>
		<path fill="#C8CDD4" d="M403.661,239.477c-3.866,0-7-3.134-7-7s3.134-7,7-7c11.097,0,20.125-8.972,20.125-20v-162
			c0-11.028-9.028-20-20.125-20c-3.866,0-7-3.134-7-7s3.134-7,7-7c18.816,0,39.125,15.252,39.125,34v162
			C442.786,224.225,422.478,239.477,403.661,239.477z"/>
	</g>
	
		<line fill="none" stroke="#5A6772" stroke-width="14" stroke-linecap="round" stroke-miterlimit="10" x1="332.192" y1="50.156" x2="384.864" y2="50.156"/>
	<g>
		<g>
			
				<line fill="none" stroke="#5A6772" stroke-width="14" stroke-linecap="round" stroke-miterlimit="10" x1="359.859" y1="80.156" x2="419.859" y2="80.156"/>
			
				<line fill="none" stroke="#5A6772" stroke-width="14" stroke-linecap="round" stroke-miterlimit="10" x1="359.859" y1="103.156" x2="419.859" y2="103.156"/>
			
				<line fill="none" stroke="#5A6772" stroke-width="14" stroke-linecap="round" stroke-miterlimit="10" x1="359.859" y1="125.156" x2="419.859" y2="125.156"/>
			
				<line fill="none" stroke="#5A6772" stroke-width="14" stroke-linecap="round" stroke-miterlimit="10" x1="359.859" y1="147.156" x2="419.859" y2="147.156"/>
		</g>
		
			<line fill="none" stroke="#5A6772" stroke-width="14" stroke-linecap="round" stroke-miterlimit="10" x1="297.197" y1="147.156" x2="297.436" y2="147.156"/>
		
			<line fill="none" stroke="#5A6772" stroke-width="14" stroke-linecap="round" stroke-miterlimit="10" x1="314.197" y1="147.156" x2="314.436" y2="147.156"/>
		
			<line fill="none" stroke="#5A6772" stroke-width="14" stroke-linecap="round" stroke-miterlimit="10" x1="332.197" y1="147.156" x2="332.436" y2="147.156"/>
	</g>
	
		<line fill="none" stroke="#5A6772" stroke-width="14" stroke-linecap="round" stroke-miterlimit="10" x1="297" y1="178.156" x2="419.859" y2="178.156"/>
	
		<line fill="none" stroke="#5A6772" stroke-width="14" stroke-linecap="round" stroke-miterlimit="10" x1="297" y1="206.156" x2="419.859" y2="206.156"/>
	
		<circle fill="#F5A623" stroke="#F5A623" stroke-width="14" stroke-linecap="round" stroke-miterlimit="10" cx="314.25" cy="105.31" r="14.5"/>
	<path fill="#5A6772" d="M419.662,8.81H295.338c-18.816,0-34.125,15.309-34.125,34.125v162.75c0,0.047,0.003,0.094,0.004,0.141
		c-0.077,11.031-9.068,19.984-20.118,19.984H238.5c-3.866,0-7,3.134-7,7s3.134,7,7,7h2.599h4.505h49.734H302h10h107.661h0
		c18.816,0,34.125-15.309,34.125-34.125V42.935C453.787,24.119,438.478,8.81,419.662,8.81z M439.787,205.685L439.787,205.685
		c0,11.097-9.029,20.125-20.125,20.125H312h-10h-6.662h-26.704c4.138-5.647,6.589-12.604,6.589-20.125V49.935l-0.011-0.001V49.28
		v-6.345c0-11.097,9.028-20.125,20.125-20.125h124.323c11.097,0,20.125,9.028,20.125,20.125V205.685z"/>
</g>
</svg>
