<?xml version="1.0" encoding="utf-8"?>
<!-- Generator: Adobe Illustrator 17.0.0, SVG Export Plug-In . SVG Version: 6.00 Build 0)  -->
<!DOCTYPE svg PUBLIC "-//W3C//DTD SVG 1.1//EN" "http://www.w3.org/Graphics/SVG/1.1/DTD/svg11.dtd">
<svg version="1.1" id="Слой_1" xmlns="http://www.w3.org/2000/svg" xmlns:xlink="http://www.w3.org/1999/xlink" x="0px" y="0px"
	 width="103.667px" height="111px" viewBox="0 0 103.667 111" enable-background="new 0 0 103.667 111" xml:space="preserve">
<path fill="none" stroke="#1D1D1B" stroke-width="4" stroke-linecap="round" stroke-miterlimit="10" d="M27.792-12.083"/>
<path fill="none" stroke="#1D1D1B" stroke-width="4" stroke-linecap="round" stroke-miterlimit="10" d="M73.792-12.083"/>
<g>
	<ellipse fill="none" stroke="#F5A623" stroke-width="4" stroke-miterlimit="10" cx="52.125" cy="71.713" rx="14.377" ry="6.07"/>
	<path fill="none" stroke="#F5A623" stroke-width="4" stroke-miterlimit="10" d="M66.502,77.691c0,3.352-6.437,6.07-14.377,6.07
		s-14.377-2.718-14.377-6.07"/>
	<line fill="none" stroke="#F5A623" stroke-width="4" stroke-miterlimit="10" x1="66.502" y1="71.713" x2="66.502" y2="78.235"/>
	<line fill="none" stroke="#F5A623" stroke-width="4" stroke-miterlimit="10" x1="37.748" y1="71.713" x2="37.748" y2="78.235"/>
	<line fill="none" stroke="#F5A623" stroke-width="4" stroke-miterlimit="10" x1="51.135" y1="78.235" x2="51.135" y2="83.744"/>
	<line fill="none" stroke="#F5A623" stroke-width="4" stroke-miterlimit="10" x1="43.3" y1="76.842" x2="43.3" y2="82.297"/>
	<g>
		
			<line fill="none" stroke="#F5A623" stroke-width="4" stroke-linecap="round" stroke-miterlimit="10" x1="52.125" y1="27.999" x2="52.125" y2="57.679"/>
		
			<line fill="none" stroke="#F5A623" stroke-width="4" stroke-linecap="round" stroke-miterlimit="10" x1="52.125" y1="22.639" x2="52.125" y2="19.017"/>
	</g>
	<g>
		
			<line fill="none" stroke="#F5A623" stroke-width="4" stroke-linecap="round" stroke-miterlimit="10" x1="33.823" y1="4.127" x2="33.823" y2="48.13"/>
		
			<line fill="none" stroke="#F5A623" stroke-width="4" stroke-linecap="round" stroke-miterlimit="10" x1="33.823" y1="57.652" x2="33.823" y2="54.029"/>
	</g>
	<g>
		
			<line fill="none" stroke="#F5A623" stroke-width="4" stroke-linecap="round" stroke-miterlimit="10" x1="70.427" y1="4.127" x2="70.427" y2="48.13"/>
		
			<line fill="none" stroke="#F5A623" stroke-width="4" stroke-linecap="round" stroke-miterlimit="10" x1="70.427" y1="57.652" x2="70.427" y2="54.029"/>
	</g>
	<g>
		
			<line fill="none" stroke="#F5A623" stroke-width="4" stroke-linecap="round" stroke-miterlimit="10" x1="86.74" y1="51.871" x2="86.74" y2="81.551"/>
		
			<line fill="none" stroke="#F5A623" stroke-width="4" stroke-linecap="round" stroke-miterlimit="10" x1="86.74" y1="46.511" x2="86.74" y2="42.889"/>
	</g>
	<line fill="none" stroke="#F5A623" stroke-width="4" stroke-miterlimit="10" x1="72.363" y1="96.381" x2="72.363" y2="102.903"/>
	<ellipse fill="none" stroke="#F5A623" stroke-width="4" stroke-miterlimit="10" cx="86.74" cy="96.381" rx="14.377" ry="6.07"/>
	<path fill="none" stroke="#F5A623" stroke-width="4" stroke-miterlimit="10" d="M101.117,102.359c0,3.352-6.437,6.07-14.377,6.07
		s-14.377-2.718-14.377-6.07"/>
	<line fill="none" stroke="#F5A623" stroke-width="4" stroke-miterlimit="10" x1="101.117" y1="96.381" x2="101.117" y2="102.903"/>
	<line fill="none" stroke="#F5A623" stroke-width="4" stroke-miterlimit="10" x1="94.414" y1="101.51" x2="94.414" y2="106.965"/>
	<line fill="none" stroke="#F5A623" stroke-width="4" stroke-miterlimit="10" x1="85.75" y1="102.903" x2="85.75" y2="108.412"/>
	<line fill="none" stroke="#F5A623" stroke-width="4" stroke-miterlimit="10" x1="3.133" y1="96.381" x2="3.133" y2="102.903"/>
	<ellipse fill="none" stroke="#F5A623" stroke-width="4" stroke-miterlimit="10" cx="17.51" cy="96.381" rx="14.377" ry="6.07"/>
	<path fill="none" stroke="#F5A623" stroke-width="4" stroke-miterlimit="10" d="M31.887,102.359c0,3.352-6.437,6.07-14.377,6.07
		s-14.377-2.718-14.377-6.07"/>
	<line fill="none" stroke="#F5A623" stroke-width="4" stroke-miterlimit="10" x1="31.887" y1="96.381" x2="31.887" y2="102.903"/>
	<line fill="none" stroke="#F5A623" stroke-width="4" stroke-miterlimit="10" x1="25.185" y1="101.51" x2="25.185" y2="106.965"/>
	<line fill="none" stroke="#F5A623" stroke-width="4" stroke-miterlimit="10" x1="16.52" y1="102.903" x2="16.52" y2="108.412"/>
	<g>
		
			<line fill="none" stroke="#F5A623" stroke-width="4" stroke-linecap="round" stroke-miterlimit="10" x1="17.51" y1="51.871" x2="17.51" y2="81.551"/>
		
			<line fill="none" stroke="#F5A623" stroke-width="4" stroke-linecap="round" stroke-miterlimit="10" x1="17.51" y1="46.511" x2="17.51" y2="42.889"/>
	</g>
</g>
</svg>
