<?xml version="1.0" encoding="utf-8"?>
<!-- Generator: Adobe Illustrator 17.0.0, SVG Export Plug-In . SVG Version: 6.00 Build 0)  -->
<!DOCTYPE svg PUBLIC "-//W3C//DTD SVG 1.1//EN" "http://www.w3.org/Graphics/SVG/1.1/DTD/svg11.dtd">
<svg version="1.1" id="Слой_1" xmlns="http://www.w3.org/2000/svg" xmlns:xlink="http://www.w3.org/1999/xlink" x="0px" y="0px"
	 width="513px" height="359px" viewBox="0 0 513 359" enable-background="new 0 0 513 359" xml:space="preserve">
<path fill="#F0F2F5" d="M452.217,224V23c0-6.627-5.373-12-12-12H69.551c-6.627,0-12,5.373-12,12v201H452.217z"/>
<path fill="#F0F2F5" d="M314.004,342.206h-14.118c-1.441,0-4.639-3.845-4.706-6.118v-25.503c0-3.565-2.834-6.462-6.371-6.577
	c-0.694-0.248-1.438-0.391-2.217-0.391h-62c-3.639,0-6.588,2.949-6.588,6.588c0,0.064,0.008,0.126,0.01,0.19
	c-0.002,0.064-0.01,0.126-0.01,0.19v25.495c-0.067,2.28-3.265,6.125-4.706,6.125H199.18c-3.639,0-6.588,2.949-6.588,6.588
	s2.949,6.588,6.588,6.588h114.824c3.639,0,6.588-2.949,6.588-6.588S317.643,342.206,314.004,342.206z"/>
<path fill="#C8CDD4" d="M302.194,341.706h-12.638c-1.29,0-4.153-3.845-4.213-6.118v-25.503c0-3.565-2.537-6.462-5.704-6.577
	c-0.621-0.248-1.287-0.391-1.985-0.391h-55.503c-3.258,0-5.898,2.949-5.898,6.588c0,0.064,0.007,0.126,0.009,0.19
	c-0.002,0.064-0.009,0.126-0.009,0.19v9.581h44.966c5.933,0,10.743,3.912,10.743,8.737v26.479h30.232
	c3.257,0,5.898-2.949,5.898-6.588S305.452,341.706,302.194,341.706z"/>
<path fill="#F0F2F5" d="M58.863,229.083v59.667c0,6.627,5.373,12,12,12H441.53c6.627,0,12-5.373,12-12v-59.667L58.863,229.083
	L58.863,229.083z"/>
<path fill="#C8CDD4" d="M434.134,224v44.318c0,7.552-5.373,13.674-12,13.674H54.467c0,7.552,5.373,13.674,12,13.674h370.667
	c6.627,0,12-6.122,12-13.674V224H434.134z"/>
<path fill="none" stroke="#5A6772" stroke-width="14" stroke-miterlimit="10" d="M453.926,289.667c0,6.627-5.373,12-12,12H71.259
	c-6.627,0-12-5.373-12-12V23c0-6.627,5.373-12,12-12h370.667c6.627,0,12,5.373,12,12V289.667z"/>
<g>
	
		<line fill="none" stroke="#5A6772" stroke-width="14" stroke-linecap="round" stroke-miterlimit="10" x1="195.592" y1="349" x2="317.592" y2="349"/>
	<g>
		<path fill="none" stroke="#5A6772" stroke-width="14" stroke-linecap="round" stroke-miterlimit="10" d="M302.592,349
			c-6.627,0-12-8.675-12-13.5v-27.096"/>
		<path fill="none" stroke="#5A6772" stroke-width="14" stroke-linecap="round" stroke-miterlimit="10" d="M210.592,349
			c6.627,0,12-8.675,12-13.5v-27.096"/>
	</g>
</g>
<line fill="none" stroke="#5A6772" stroke-width="14" stroke-linecap="round" stroke-miterlimit="10" x1="59.259" y1="227" x2="453.926" y2="227"/>
<circle fill="#5A6772" cx="256.196" cy="264.917" r="7.833"/>
<g>
	
		<line fill="none" stroke="#5A6772" stroke-width="14" stroke-linecap="round" stroke-miterlimit="10" x1="32.72" y1="349" x2="360.737" y2="349"/>
	
		<line fill="none" stroke="#5A6772" stroke-width="14" stroke-linecap="round" stroke-miterlimit="10" x1="380.048" y1="349" x2="394.703" y2="349"/>
	
		<line fill="none" stroke="#5A6772" stroke-width="14" stroke-linecap="round" stroke-miterlimit="10" x1="449.048" y1="349" x2="501.72" y2="349"/>
	
		<line fill="none" stroke="#5A6772" stroke-width="14" stroke-linecap="round" stroke-miterlimit="10" x1="415.048" y1="349" x2="419.884" y2="349"/>
	
		<line fill="none" stroke="#5A6772" stroke-width="14" stroke-linecap="round" stroke-miterlimit="10" x1="8.048" y1="349" x2="12.884" y2="349"/>
</g>
<polyline fill="none" stroke="#F2D4A1" stroke-width="5" stroke-linecap="round" stroke-linejoin="round" stroke-miterlimit="10" points="
	83.884,203 122.333,151.333 150.485,181.969 191.113,118 229.113,168.333 265,92.917 319,170.917 352.737,85.917 386.703,129.5 
	409.466,88.28 423.667,105.333 "/>
<circle fill="#F5A623" cx="121.113" cy="152.917" r="7"/>
<circle fill="#F5A623" cx="150.113" cy="179.917" r="7"/>
<circle fill="#F5A623" cx="191.113" cy="118.917" r="7"/>
<circle fill="#F5A623" cx="229.113" cy="164.917" r="7"/>
<circle fill="#F5A623" cx="266.113" cy="92.917" r="7"/>
<circle fill="#F5A623" cx="319.113" cy="168.917" r="7"/>
<circle fill="#F5A623" cx="352.113" cy="85.917" r="7"/>
<circle fill="#F5A623" cx="387.113" cy="127.917" r="7"/>
<circle fill="#F5A623" cx="409.113" cy="87.917" r="7"/>
</svg>
